代码,名称
SH600318,新力金融
SH603329,上海雅仕
SH603506,南都物业
SH600149,廊坊发展
SH603878,武进不锈
SH603798,康普顿
SH603090,宏盛股份
SH605123,派克新材
SH605287,德才股份
SH603602,纵横通信
SH600051,宁波联合
SH603860,中公高科
SH605177,东亚药业
SH600697,欧亚集团
SH603696,安记食品
SH603685,晨丰科技
SH605255,天普股份
SH603172,万丰股份
SH603096,新经典
SH603045,福达合金
SH603258,电魂网络
SH600883,博闻科技
SH605122,四方新材
SH600137,浪莎股份
SH605258,协和电子
SH605155,西大门
SH603856,东宏股份
SH603073,彩蝶实业
SH603151,邦基科技
SH603331,百达精工
SH603725,天安新材
SH603137,恒尚节能
SH600235,民丰特纸
SH600241,时代万恒
SH603080,新疆火炬
SH603102,百合股份
SH605151,西上海
SH603578,三星新材
SH600128,苏豪弘业
SH603909,建发合诚
SH603353,XD和顺石
SH603836,海程邦达
SH600721,百花医药
SH600692,亚通股份
SH605058,澳弘电子
SH603527,众源新材
SH600668,尖峰集团
SH603999,读者传媒
SH601121,宝地矿业
SH603206,嘉环科技
