代码,名称
SH600455,博通股份
SH600493,凤竹纺织
SH600883,博闻科技
SH600149,廊坊发展
SH600697,欧亚集团
SH605287,德才股份
SH603506,南都物业
SH603090,宏盛股份
SH603045,福达合金
SH603860,中公高科
SH603725,天安新材
SH603696,安记食品
SH605255,天普股份
SH603329,上海雅仕
SH605155,西大门
SH605122,四方新材
SH603685,晨丰科技
SH600051,宁波联合
SH605177,东亚药业
SH603798,康普顿
