代码,名称
SZ002188,中天服务
SZ001336,楚环科技
SZ000638,万方发展
SZ001211,双枪科技
SZ001259,利仁科技
SZ001231,农心科技
SZ002830,名雕股份
SZ003003,天元股份
SZ002883,中设股份
SZ002963,豪尔赛
SZ002809,红墙股份
SZ002780,三夫户外
SZ002890,弘宇股份
SZ003017,大洋生物
SZ000633,合金投资
SZ001210,金房能源
SZ002836,新宏泽
SZ002295,精艺股份
SZ001202,炬申股份
SZ002828,贝肯能源
SZ001234,泰慕士
SZ000953,河化股份
SZ002715,登云股份
SZ002817,黄山胶囊
SZ002144,宏达高科
SZ002826,易明医药
SZ001260,坤泰股份
SZ003023,彩虹集团
SZ002105,信隆健康
SZ003027,同兴科技
