代码,名称
SH688121,卓然股份
SH603051,鹿山新材
SH600371,万向德农
SH603811,诚意药业
SH603949,雪龙集团
SZ002903,宇环数控
SH605208,永茂泰
SZ002476,宝莫股份
SZ300994,久祺股份
SZ002940,昂利康
SH605186,健麾信息
SH688358,祥生医疗
SZ002107,沃华医药
SH603966,法兰泰克
SH603538,美诺华
SH603076,乐惠国际
SH688059,华锐精密
SH603353,和顺石油
SZ300575,中旗股份
SZ300452,山河药辅
SZ002852,道道全
SZ300095,华伍股份
SH688308,欧科亿
SH603110,东方材料
SZ002772,众兴菌业
SZ301278,快可电子
SZ001223,欧克科技
SH600419,天润乳业
SZ300986,志特新材
SH688133,泰坦科技
SZ002860,星帅尔
SZ301046,能辉科技
SZ002412,汉森制药
SH688663,新风光
SH603527,众源新材
SZ001215,千味央厨
SH603065,宿迁联盛
SZ002790,瑞尔特
SH603136,天目湖
SZ001378,德冠新材
SZ002443,金洲管道
SZ002398,垒知集团
SH603630,拉芳家化
SZ301026,浩通科技
SZ002900,哈三联
SZ301509,金凯生科
SH603519,立霸股份
SH603987,康德莱
SH688768,容知日新
SH600731,湖南海利
