代码,名称
SZ002188,中天服务
SZ002830,名雕股份
SZ003003,天元股份
SZ002883,中设股份
SZ002963,豪尔赛
SZ002809,红墙股份
SZ002780,三夫户外
SZ002890,弘宇股份
SZ003017,大洋生物
SZ002836,新宏泽
SZ002295,精艺股份
SZ002828,贝肯能源
SZ002715,登云股份
SZ002817,黄山胶囊
SZ002144,宏达高科
SZ002826,易明医药
SZ003023,彩虹集团
SZ002105,信隆健康
SZ003027,同兴科技
SZ002492,恒基达鑫
SZ002360,同德化工
SZ002278,神开股份
SZ002968,新大正
SZ002998,优彩资源
SZ002909,集泰股份
SZ002802,洪汇新材
SZ002136,安纳达
SZ003008,开普检测
SZ002209,达意隆
SZ002871,伟隆股份
SZ002887,绿茵生态
SZ002999,天禾股份
SZ002687,乔治白
SZ002566,益盛药业
SZ002873,新天药业
SZ002731,萃华珠宝
SZ002942,新农股份
SZ002753,永东股份
SZ002365,永安药业
SZ002066,瑞泰科技
SZ002853,皮阿诺
SZ002394,联发股份
SZ002732,燕塘乳业
SZ002671,龙泉股份
SZ003018,金富科技
SZ003036,泰坦股份
SZ002574,明牌珠宝
SZ002576,通达动力
SZ002820,桂发祥
SZ002107,沃华医药
SZ002159,三特索道
SZ002972,科安达
SZ002940,昂利康
SZ002743,富煌钢构
SZ002476,宝莫股份
SZ002774,快意电梯
SZ002286,保龄宝
SZ002763,汇洁股份
SZ002893,京能热力
SZ002772,众兴菌业
SZ002903,宇环数控
SZ002451,摩恩电气
SZ002864,盘龙药业
SZ002863,今飞凯达
SZ002674,兴业科技
SZ002852,道道全
SZ002787,华源控股
SZ002381,双箭股份
SZ002363,隆基机械
SZ002054,德美化工
SZ002357,富临运业
SZ003033,征和工业
SZ002412,汉森制药
SZ002796,世嘉科技
SZ002877,智能自控
SZ002825,纳尔股份
SZ002900,哈三联
SZ002443,金洲管道
SZ002442,龙星科技
SZ002977,天箭科技
SZ002981,朝阳科技
SZ002927,泰永长征
SZ002811,郑中设计
SZ002788,鹭燕医药
SZ002040,南京港
SZ002337,赛象科技
SZ002860,星帅尔
SZ002923,润都股份
SZ002790,瑞尔特
SZ002631,德尔未来
SZ002722,物产金轮
SZ002535,林州重机
SZ002186,全聚德
SZ002686,亿利达
SZ002980,华盛昌
SZ002734,利民股份
SZ002560,通达股份
SZ002688,金河生物
SZ002343,慈文传媒
SZ002661,克明食品
SZ002164,宁波东力
SZ002201,九鼎新材
SZ002165,红宝丽
SZ002879,长缆科技
SZ002404,嘉欣丝绸
SZ002949,华阳国际
SZ002735,王子新材
SZ002598,山东章鼓
SZ002952,亚世光电
SZ002899,英派斯
SZ003020,立方制药
SZ002627,三峡旅游
SZ002177,御银股份
SZ002198,嘉应制药
SZ002956,西麦食品
SZ002398,垒知集团
SZ002885,京泉华
SZ002462,嘉事堂
SZ002666,德联集团
SZ003041,真爱美家
SZ003037,三和管桩
SZ002082,万邦德
SZ002615,哈尔斯
SZ003025,思进智能
SZ002849,威星智能
SZ002846,英联股份
SZ002300,太阳电缆
SZ002333,罗普斯金
SZ002724,海洋王
SZ002457,青龙管业
SZ002971,和远气体
SZ002783,凯龙股份
SZ002943,宇晶股份
SZ002644,佛慈制药
SZ002090,金智科技
SZ002918,蒙娜丽莎
SZ002606,大连电瓷
SZ002112,三变科技
SZ003015,日久光电
SZ002692,远程股份
SZ002224,三力士
SZ002660,茂硕电源
SZ002933,新兴装备
SZ002546,新联电子
SZ002728,特一药业
SZ002094,青岛金王
SZ002676,顺威股份
SZ002878,元隆雅图
SZ002908,德生科技
SZ002296,辉煌科技
SZ002479,富春环保
SZ002148,北纬科技
SZ002983,芯瑞达
SZ002658,雪迪龙
SZ002932,明德生物
SZ002996,顺博合金
SZ003043,华亚智能
SZ002454,松芝股份
SZ002614,奥佳华
SZ002835,同为股份
SZ002986,宇新股份
SZ002264,新华都
SZ002029,七匹狼
SZ002393,力生制药
SZ002810,山东赫达
SZ002282,博深股份
SZ002637,赞宇科技
SZ002584,西陇科学
SZ002876,三利谱
SZ002395,双象股份
SZ002161,远望谷
SZ002593,日上集团
SZ002448,中原内配
SZ002083,孚日股份
SZ002930,宏川智慧
SZ002613,北玻股份
SZ002655,共达电声
SZ002478,常宝股份
SZ002452,长高电新
SZ002758,浙农股份
