代码,名称
SZ002188,中天服务
SZ002830,名雕股份
SZ003003,天元股份
SZ002883,中设股份
SZ002963,豪尔赛
SZ002809,红墙股份
SZ002780,三夫户外
SZ002890,弘宇股份
SZ003017,大洋生物
SZ002836,新宏泽
SZ002295,精艺股份
SZ002828,贝肯能源
SZ002715,登云股份
SZ002817,黄山胶囊
SZ002144,宏达高科
SZ002826,易明医药
SZ003023,彩虹集团
SZ002105,信隆健康
SZ003027,同兴科技
SZ002492,恒基达鑫
SZ002360,同德化工
SZ002278,神开股份
SZ002968,新大正
SZ002998,优彩资源
SZ002909,集泰股份
SZ002802,洪汇新材
SZ002136,安纳达
SZ003008,开普检测
SZ002209,达意隆
SZ002871,伟隆股份
SZ002887,绿茵生态
SZ002999,天禾股份
SZ002687,乔治白
SZ002566,益盛药业
SZ002873,新天药业
SZ002731,萃华珠宝
SZ002942,新农股份
SZ002753,永东股份
SZ002365,永安药业
SZ002066,瑞泰科技
SZ002853,皮阿诺
SZ002394,联发股份
SZ002732,燕塘乳业
SZ002671,龙泉股份
SZ003018,金富科技
SZ003036,泰坦股份
SZ002574,明牌珠宝
SZ002576,通达动力
SZ002820,桂发祥
SZ002107,沃华医药
SZ002159,三特索道
SZ002972,科安达
SZ002940,昂利康
SZ002743,富煌钢构
SZ002476,宝莫股份
SZ002774,快意电梯
SZ002286,保龄宝
SZ002763,汇洁股份
SZ002893,京能热力
SZ002772,众兴菌业
SZ002903,宇环数控
SZ002451,摩恩电气
SZ002864,盘龙药业
SZ002863,今飞凯达
SZ002674,兴业科技
SZ002852,道道全
SZ002787,华源控股
SZ002381,双箭股份
SZ002363,隆基机械
SZ002054,德美化工
SZ002357,富临运业
SZ003033,征和工业
SZ002412,汉森制药
SZ002796,世嘉科技
SZ002877,智能自控
SZ002825,纳尔股份
SZ002900,哈三联
SZ002443,金洲管道
SZ002442,龙星科技
SZ002977,天箭科技
