代码,名称
SH603323,苏农银行
SZ001202,炬申股份
SZ002188,中天服务
SH600149,廊坊发展
SH603878,武进不锈
SZ002828,贝肯能源
SH600318,新力金融
SZ002890,弘宇股份
SZ000638,万方发展
SZ002830,名雕股份
SZ002796,世嘉科技
SH600051,宁波联合
SZ003008,开普检测
SZ000953,河化股份
SH600697,欧亚集团
SH603696,安记食品
SZ001259,利仁科技
SZ002715,登云股份
SZ001231,农心科技
SH603096,新经典
SH600883,博闻科技
SZ000633,合金投资
SH600508,上海能源
SZ001229,魅视科技
SH600137,浪莎股份
SZ001373,翔腾新材
SH605122,四方新材
SZ001211,双枪科技
SZ001336,楚环科技
SH603238,诺邦股份
SH600241,时代万恒
SZ002398,垒知集团
SZ002839,张家港行
SZ002492,恒基达鑫
SH603506,南都物业
SZ001210,金房能源
SZ002443,金洲管道
SH603798,康普顿
SH600830,香溢融通
SH603090,宏盛股份
SZ002977,天箭科技
SZ002883,中设股份
SH603602,纵横通信
SH600689,上海三毛
SH600749,西藏旅游
SZ002817,黄山胶囊
SZ000007,全新好
SH603102,百合股份
SZ003023,彩虹集团
SH605255,天普股份
SZ002809,红墙股份
SZ002343,慈文传媒
SH603151,邦基科技
SZ002295,精艺股份
SH600971,恒源煤电
SZ002908,德生科技
SH603073,彩蝶实业
SH603685,晨丰科技
SZ002066,瑞泰科技
SZ003003,天元股份
SZ003027,同兴科技
SH603059,倍加洁
SH603829,洛凯股份
SZ002392,北京利尔
SZ002963,豪尔赛
SZ002780,三夫户外
SZ003017,大洋生物
SZ002836,新宏泽
SH603045,福达合金
SH603331,百达精工
