代码,名称
SH510050,上证50ETF-不交易
SZ159845,中证1000ETF-不交易
SH512120,医药50ETF(细分医药)-不交易
SH515170,食品饮料ETF(细分食品)-不交易
SH512580,碳中和龙头ETF(中证环保)-不交易
SH512750,基本面50ETF(基本面50)-不交易
SH510150,消费ETF(消费80)
SH516900,食品饮料ETF华安(食品饮料)
SZ159886,机械ETF(细分机械)
SZ159936,可选消费ETF-不交易
SZ159709,物联网ETF工银(物联网50)
SZ159905,深红利ETF(深证红利)
SZ159859,生物医药ETF(生物医药)
SH515630,保险证券ETF(800证保)
SH512980,传媒ETF(中证传媒)
SH516970,基建50ETF(基建工程)
SZ159939,信息技术ETF
SH515030,新能车
