代码,名称
SH000819,有色金属
SH000063,上证周期
SZ399995,基建工程
SH000815,细分食品
SH000932,中证消费
SZ399913,300医药
SH000991,全指医药
BK0044,医疗器械
SZ399971,中证传媒
CSI930901,动漫游戏
CSI931087,科技龙头
BK0021,半导体及元件
SZ399973,中证国防
BK0478,光伏概念
SZ399976,CS新能车
SZ399986,中证银行-不交易
BK0053,房地产开发-不交易
SH000852,中证1000-不交易
