代码,名称
SH000852,中证1000-不交易
SH000905,中证500-不交易
SH000300,沪深300-不交易
SH000979,大宗商品-不交易
SZ399296,创成长
SZ399608,科技100
SZ399932,中证消费
SH000993,全指信息
SZ399441,生物医药
SH000827,中证环保
SZ399995,基建工程
SZ399812,中证养老产业指数
SZ399966,800非银