代码,名称
SZ002910,庄园牧场
SZ002890,弘宇股份
SZ002921,联诚精密
SZ002826,易明医药
SZ002144,宏达高科
SZ002718,友邦吊顶
SZ002789,建艺集团
SZ002696,百洋股份
SZ003011,海象新材
SZ003023,彩虹集团
SZ003004,声迅股份
SZ002105,信隆健康
SZ002802,洪汇新材
SZ003008,开普检测
SZ002809,红墙股份
