代码,名称
SZ001260,坤泰股份
SZ001278,一彬科技
SZ001373,翔腾新材
SZ001225,和泰机电
SZ001368,通达创智
SZ001387,雪祺电气
SZ001326,联域股份
SZ001324,长青科技
SZ001360,南矿集团
SZ001358,兴欣新材
SZ001367,海森药业
SZ001378,德冠新材
SZ001239,永达股份
SZ001282,三联锻造
SZ001379,腾达科技
