代码,名称
SZ300717,华信新材
SZ301057,汇隆新材
SZ300955,嘉亨家化
SZ300931,通用电梯
SZ300923,研奥股份
SZ300417,南华仪器
SZ300877,金春股份
SZ301113,雅艺科技
SZ300710,万隆光电
SZ300651,金陵体育
SZ300640,德艺文创
SZ301063,海锅股份
SZ301131,聚赛龙
SZ300971,博亚精工
SZ301053,远信工业
