代码,名称
SH600276,恒瑞医药
SZ000661,长春高新
SZ300015,爱尔眼科
SH603259,药明康德
SZ002821,凯莱英
SZ300677,英科医疗
SH600529,山东药玻
SZ300347,泰格医药
SH603520,司太立
SH600521,华海药业
SZ300357,我武生物
SZ300760,迈瑞医疗
SZ300463,迈克生物
SH603882,金域医学
SZ300298,三诺生物
SZ300676,华大基因
SZ300685,艾德生物
SZ300725,药石科技
SH603658,安图生物
SZ300601,康泰生物
SH600763,通策医疗
SZ300122,智飞生物
SH603456,九州药业
SH603883,老百姓
SZ300558,贝达药业
SZ300759,康龙化成
SZ300595,欧普康视
SH688029,南微医学
SH603233,大参林
SZ300529,健帆生物
SZ300244,迪安诊断
SZ002007,华兰生物
SH603392,万泰生物
SZ002399,海普瑞
SH600998,九州通
SZ300003,乐普医疗
SZ300573,兴齐眼药
SZ300451,创业慧康
SZ300142,沃森生物
SH688016,心脉医疗
SZ300363,博腾股份
SZ300482,万孚生物
SZ300639,凯普生物
