代码,名称
SH600066,宇通客车
SH600171,上海贝岭
SH600271,航天信息
SH600276,恒瑞医药
SH600487,亨通光电
SH600516,方大炭素
SH600521,华海药业
SH600570,恒生电子
SH600584,长电科技
SH600588,用友网络
SH600703,三安光电
SH600845,宝信软件
SH600867,通化东宝
SH601012,隆基股份
SH601933,永辉超市
SH601985,中国核电
SH603005,晶方科技
SH603019,中科曙光
SH603776,永安行
SH603986,兆易创新
