代码,名稱
SZ000001,平安銀行
SZ000002,萬科Ａ
SZ000006,深振業Ａ
SZ000008,神州高鐵
SZ000009,中國寶安
SZ000011,深物業Ａ
SZ000012,南玻Ａ
SZ000016,深康佳Ａ
SZ000019,深糧控股
SZ000021,深科技
SZ000025,特力Ａ
SZ000027,深圳能源
SZ000028,國藥一致
SZ000029,深深房Ａ
SZ000030,富奧股份
SZ000031,大悅城
SZ000032,深桑達Ａ
SZ000034,神州數碼
SZ000035,中國天楹
SZ000036,華聯控股
SZ000039,中集集團
SZ000045,深紡織Ａ
SZ000048,京基智農
SZ000049,德賽電池
SZ000050,深天馬Ａ
SZ000058,深賽格
SZ000059,華錦股份
SZ000060,中金嶺南
SZ000061,農產品
SZ000062,深圳華強
SZ000063,中興通訊
SZ000065,北方國際
SZ000066,中國長城
SZ000069,華僑城Ａ
SZ000078,海王生物
SZ000088,鹽田港
SZ000089,深圳機場
SZ000090,天健集團
SZ000096,廣聚能源
SZ000099,中信海直
SZ000100,ＴＣＬ科技
SZ000155,川能動力
SZ000156,華數傳媒
SZ000157,中聯重科
SZ000158,常山北明
SZ000166,申萬宏源
SZ000301,東方盛虹
SZ000333,美的集團
SZ000338,濰柴動力
SZ000400,許繼電氣
SZ000401,冀東水泥
SZ000402,金融街
SZ000403,派林生物
SZ000408,藏格礦業
SZ000409,雲鼎科技
SZ000410,瀋陽機床
SZ000411,英特集團
SZ000415,渤海租賃
SZ000420,吉林化纖
SZ000422,湖北宜化
SZ000423,東阿阿膠
SZ000425,徐工機械
SZ000426,興業銀錫
SZ000429,粵高速Ａ
SZ000488,晨鳴紙業
SZ000498,山東路橋
SZ000501,武商集團
SZ000503,國新健康
SZ000505,京糧控股
SZ000507,珠海港
SZ000513,麗珠集團
SZ000516,國際醫學
SZ000517,榮安地產
SZ000519,中兵紅箭
SZ000521,長虹美菱
SZ000523,紅棉股份
SZ000524,嶺南控股
SZ000526,學大教育
SZ000528,柳工
SZ000531,穗恒運Ａ
SZ000534,萬澤股份
SZ000536,華映科技
SZ000537,中綠電
SZ000538,雲南白藥
SZ000539,粵電力Ａ
SZ000541,佛山照明
SZ000543,皖能電力
SZ000544,中原環保
SZ000546,金圓股份
SZ000547,航天發展
SZ000550,江鈴汽車
SZ000552,甘肅能化
SZ000553,安道麥Ａ
SZ000555,神州信息
SZ000557,西部創業
SZ000559,萬向錢潮
SZ000560,我愛我家
SZ000561,烽火電子
SZ000563,陝國投Ａ
SZ000564,供銷大集
SZ000566,海南海藥
SZ000567,海德股份
SZ000568,瀘州老窖
SZ000572,海馬汽車
SZ000581,威孚高科
SZ000582,北部灣港
SZ000589,貴州輪胎
SZ000591,太陽能
SZ000592,平潭發展
SZ000595,寶塔實業
SZ000596,古井貢酒
SZ000597,東北製藥
SZ000598,興蓉環境
SZ000600,建投能源
SZ000601,韶能股份
SZ000603,盛達資源
SZ000607,華媒控股
SZ000612,焦作萬方
SZ000617,中油資本
SZ000620,新華聯
SZ000623,吉林敖東
SZ000625,長安汽車
SZ000627,天茂集團
SZ000628,高新發展
SZ000629,釩鈦股份
SZ000630,銅陵有色
SZ000631,順發恒業
SZ000636,風華高科
SZ000650,仁和藥業
SZ000651,格力電器
SZ000652,泰達股份
SZ000657,中鎢高新
SZ000661,長春高新
SZ000665,湖北廣電
SZ000670,盈方微
SZ000672,上峰水泥
SZ000676,智度股份
SZ000680,山推股份
SZ000681,視覺中國
SZ000682,東方電子
SZ000683,遠興能源
SZ000685,中山公用
SZ000686,東北證券
SZ000688,國城礦業
SZ000690,寶新能源
SZ000697,煉石航空
SZ000700,模塑科技
SZ000703,恒逸石化
SZ000708,中信特鋼
SZ000709,河鋼股份
SZ000712,錦龍股份
SZ000713,豐樂種業
SZ000717,中南股份
SZ000718,蘇寧環球
SZ000719,中原傳媒
SZ000720,新能泰山
SZ000721,西安飲食
SZ000722,湖南發展
SZ000723,美錦能源
SZ000725,京東方Ａ
SZ000727,冠捷科技
SZ000728,國元證券
SZ000729,燕京啤酒
SZ000731,四川美豐
SZ000733,振華科技
SZ000735,羅牛山
SZ000736,中交地產
SZ000737,北方銅業
SZ000738,航發控制
SZ000739,普洛藥業
SZ000750,國海證券
SZ000751,鋅業股份
SZ000755,山西高速
SZ000756,新華製藥
SZ000758,中色股份
SZ000761,本鋼板材
SZ000762,西藏礦業
SZ000766,通化金馬
SZ000767,晉控電力
SZ000768,中航西飛
SZ000776,廣發證券
SZ000777,中核科技
SZ000778,新興鑄管
SZ000783,長江證券
SZ000785,居然之家
SZ000786,北新建材
SZ000789,萬年青
SZ000791,甘肅能源
SZ000792,鹽湖股份
SZ000795,英洛華
SZ000797,中國武夷
SZ000799,酒鬼酒
SZ000800,一汽解放
SZ000801,四川九洲
SZ000807,雲鋁股份
SZ000810,創維數字
SZ000811,冰輪環境
SZ000813,德展健康
SZ000815,美利雲
SZ000818,航錦科技
SZ000819,岳陽興長
SZ000821,京山輕機
SZ000822,山東海化
SZ000823,超聲電子
SZ000825,太鋼不鏽
SZ000828,東莞控股
SZ000829,天音控股
SZ000830,魯西化工
SZ000831,中國稀土
SZ000837,秦川機床
SZ000839,中信國安
SZ000848,承德露露
SZ000852,石化機械
SZ000858,五糧液
SZ000860,順鑫農業
SZ000862,銀星能源
SZ000863,三湘印象
SZ000868,安凱客車
SZ000869,張裕Ａ
SZ000875,吉電股份
SZ000876,新希望
SZ000877,天山股份
SZ000878,雲南銅業
SZ000881,中廣核技
SZ000883,湖北能源
SZ000885,城發環境
SZ000886,海南高速
SZ000887,中鼎股份
SZ000888,峨眉山Ａ
SZ000893,亞鉀國際
SZ000895,雙匯發展
SZ000898,鞍鋼股份
SZ000899,贛能股份
SZ000900,現代投資
SZ000901,航天科技
SZ000902,新洋豐
SZ000903,雲內動力
SZ000905,廈門港務
SZ000906,浙商中拓
SZ000912,瀘天化
SZ000913,錢江摩托
SZ000915,華特達因
SZ000917,電廣傳媒
SZ000921,海信家電
SZ000922,佳電股份
SZ000923,河鋼資源
SZ000927,中國鐵物
SZ000928,中鋼國際
SZ000930,中糧科技
SZ000932,華菱鋼鐵
SZ000933,神火股份
SZ000935,四川雙馬
SZ000936,華西股份
SZ000937,冀中能源
SZ000938,紫光股份
SZ000948,南天信息
SZ000949,新鄉化纖
SZ000950,重藥控股
SZ000951,中國重汽
SZ000957,中通客車
SZ000958,電投產融
SZ000959,首鋼股份
SZ000960,錫業股份
SZ000962,東方鉭業
SZ000963,華東醫藥
SZ000966,長源電力
SZ000967,盈峰環境
SZ000968,藍焰控股
SZ000969,安泰科技
SZ000970,中科三環
SZ000975,山金國際
SZ000977,浪潮信息
SZ000980,眾泰汽車
SZ000981,山子高科
SZ000983,山西焦煤
SZ000987,越秀資本
SZ000988,華工科技
SZ000990,誠志股份
SZ000993,閩東電力
SZ000997,新大陸
SZ000998,隆平高科
SZ000999,華潤三九
SZ001201,東瑞股份
SZ001203,大中礦業
SZ001208,華菱線纜
SZ001213,中鐵特貨
SZ001215,千味央廚
SZ001227,蘭州銀行
SZ001236,弘業期貨
SZ001239,永達股份
SZ001258,立新能源
SZ001269,歐晶科技
SZ001270,鋮昌科技
SZ001286,陝西能源
SZ001287,中電港
SZ001289,龍源電力
SZ001301,尚太科技
SZ001306,夏廈精密
SZ001308,康冠科技
SZ001309,德明利
SZ001311,多利科技
SZ001313,粵海飼料
SZ001314,億道信息
SZ001322,箭牌家居
SZ001323,慕思股份
SZ001328,登康口腔
SZ001330,博納影業
SZ001337,四川黃金
SZ001338,永順泰
SZ001339,智微智能
SZ001376,百通能源
SZ001378,德冠新材
SZ001389,廣合科技
SZ001696,宗申動力
SZ001872,招商港口
SZ001896,豫能控股
SZ001914,招商積餘
SZ001965,招商公路
SZ001979,招商蛇口
SZ002001,新和成
SZ002003,偉星股份
SZ002004,華邦健康
SZ002006,精工科技
SZ002007,華蘭生物
SZ002008,大族激光
SZ002009,天奇股份
SZ002010,傳化智聯
SZ002011,盾安環境
SZ002014,永新股份
SZ002015,協鑫能科
SZ002016,世榮兆業
SZ002017,東信和平
SZ002019,億帆醫藥
SZ002020,京新藥業
SZ002022,科華生物
SZ002023,海特高新
SZ002025,航天電器
SZ002027,分眾傳媒
SZ002028,思源電氣
SZ002030,達安基因
SZ002031,巨輪智能
SZ002032,蘇泊爾
SZ002033,麗江股份
SZ002034,旺能環境
SZ002035,華帝股份
SZ002036,聯創電子
SZ002038,雙鷺藥業
SZ002039,黔源電力
SZ002041,登海種業
SZ002042,華孚時尚
SZ002043,兔寶寶
SZ002044,美年健康
SZ002045,國光電器
SZ002046,國機精工
SZ002048,寧波華翔
SZ002049,紫光國微
SZ002050,三花智控
SZ002051,中工國際
SZ002053,雲南能投
SZ002055,得潤電子
SZ002056,橫店東磁
SZ002057,中鋼天源
SZ002059,雲南旅遊
SZ002060,廣東建工
SZ002061,浙江交科
SZ002062,宏潤建設
SZ002063,遠光軟件
SZ002064,華峰化學
SZ002065,東華軟件
SZ002068,黑貓股份
SZ002073,軟控股份
SZ002074,國軒高科
SZ002075,沙鋼股份
SZ002077,大港股份
SZ002078,太陽紙業
SZ002079,蘇州固鍀
SZ002080,中材科技
SZ002081,金螳螂
SZ002085,萬豐奧威
SZ002088,魯陽節能
SZ002091,江蘇國泰
SZ002093,國脈科技
SZ002095,生意寶
SZ002096,易普力
SZ002097,山河智能
SZ002099,海翔藥業
SZ002100,天康生物
SZ002101,廣東鴻圖
SZ002102,能特科技
SZ002104,恒寶股份
SZ002106,萊寶高科
SZ002108,滄州明珠
SZ002110,三鋼閩光
SZ002111,威海廣泰
SZ002115,三維通信
SZ002116,中國海誠
SZ002117,東港股份
SZ002120,韻達股份
SZ002121,科陸電子
SZ002122,匯洲智能
SZ002123,夢網科技
SZ002125,湘潭電化
SZ002126,銀輪股份
SZ002127,南極電商
SZ002128,電投能源
SZ002129,ＴＣＬ中環
SZ002130,沃爾核材
SZ002131,利歐股份
SZ002135,東南網架
SZ002138,順絡電子
SZ002139,拓邦股份
SZ002140,東華科技
SZ002142,寧波銀行
SZ002145,中核鈦白
SZ002146,榮盛發展
SZ002149,西部材料
SZ002150,通潤裝備
SZ002151,北斗星通
SZ002152,廣電運通
SZ002153,石基信息
SZ002154,報喜鳥
SZ002155,湖南黃金
SZ002156,通富微電
SZ002157,正邦科技
SZ002158,漢鐘精機
SZ002163,海南發展
SZ002166,萊茵生物
SZ002167,東方鋯業
SZ002169,智光電氣
SZ002170,芭田股份
SZ002171,楚江新材
SZ002174,游族網絡
SZ002176,江特電機
SZ002179,中航光電
SZ002180,納思達
SZ002181,粵傳媒
SZ002182,寶武鎂業
SZ002183,怡亞通
SZ002184,海得控制
SZ002185,華天科技
SZ002190,成飛集成
SZ002191,勁嘉股份
SZ002192,融捷股份
SZ002194,武漢凡谷
SZ002195,岩山科技
SZ002202,金風科技
SZ002203,海亮股份
SZ002204,大連重工
SZ002206,海利得
SZ002208,合肥城建
SZ002210,飛馬國際
SZ002212,天融信
SZ002214,大立科技
SZ002215,諾普信
SZ002216,三全食品
SZ002218,拓日新能
SZ002219,新里程
SZ002221,東華能源
SZ002222,福晶科技
SZ002223,魚躍醫療
SZ002226,江南化工
SZ002229,鴻博股份
SZ002230,科大訊飛
SZ002232,啟明信息
SZ002233,塔牌集團
SZ002236,大華股份
SZ002237,恒邦股份
SZ002238,天威視訊
SZ002239,奧特佳
SZ002240,盛新鋰能
SZ002241,歌爾股份
SZ002242,九陽股份
SZ002243,力合科創
SZ002244,濱江集團
SZ002245,蔚藍鋰芯
SZ002246,北化股份
SZ002249,大洋電機
SZ002250,聯化科技
SZ002252,上海萊士
SZ002254,泰和新材
SZ002256,兆新股份
SZ002258,利爾化學
SZ002261,拓維信息
SZ002262,恩華藥業
SZ002263,大東南
SZ002265,建設工業
SZ002266,浙富控股
SZ002267,陝天然氣
SZ002268,電科網安
SZ002270,華明裝備
SZ002271,東方雨虹
SZ002273,水晶光電
SZ002274,華昌化工
SZ002275,桂林三金
SZ002276,萬馬股份
SZ002277,友阿股份
SZ002279,久其軟件
SZ002281,光迅科技
SZ002283,天潤工業
SZ002284,亞太股份
SZ002285,世聯行
SZ002287,奇正藏藥
SZ002291,遙望科技
SZ002292,奧飛娛樂
SZ002293,羅萊生活
SZ002294,信立泰
SZ002299,聖農發展
SZ002300,太陽電纜
SZ002301,齊心集團
SZ002302,西部建設
SZ002303,美盈森
SZ002304,洋河股份
SZ002307,北新路橋
SZ002311,海大集團
SZ002312,川發龍蟒
SZ002314,南山控股
SZ002315,焦點科技
SZ002317,眾生藥業
SZ002318,久立特材
SZ002320,海峽股份
SZ002321,華英農業
SZ002324,普利特
SZ002326,永太科技
SZ002327,富安娜
SZ002329,皇氏集團
SZ002332,仙琚製藥
SZ002334,英威騰
SZ002335,科華數據
SZ002338,奧普光電
SZ002340,格林美
SZ002344,海寧皮城
SZ002345,潮宏基
SZ002346,柘中股份
SZ002349,精華製藥
SZ002351,漫步者
SZ002352,順豐控股
SZ002353,傑瑞股份
SZ002354,天娛數科
SZ002356,赫美集團
SZ002362,漢王科技
SZ002366,融發核電
SZ002367,康力電梯
SZ002368,太極股份
SZ002371,北方華創
SZ002372,偉星新材
SZ002373,千方科技
SZ002375,亞廈股份
SZ002376,新北洋
SZ002378,章源鎢業
SZ002379,宏創控股
SZ002382,藍帆醫療
SZ002383,合眾思壯
SZ002384,東山精密
SZ002385,大北農
SZ002386,天原股份
SZ002387,維信諾
SZ002389,航天彩虹
SZ002390,信邦製藥
SZ002396,星網銳捷
SZ002399,海普瑞
SZ002400,省廣集團
SZ002401,中遠海科
SZ002402,和而泰
SZ002405,四維圖新
SZ002407,多氟多
SZ002408,齊翔騰達
SZ002409,雅克科技
SZ002410,廣聯達
SZ002413,雷科防務
SZ002414,高德紅外
SZ002415,海康威視
SZ002416,愛施德
SZ002419,天虹股份
SZ002421,達實智能
SZ002422,科倫藥業
SZ002423,中糧資本
SZ002426,勝利精密
SZ002427,尤夫股份
SZ002428,雲南鍺業
SZ002429,兆馳股份
SZ002430,杭氧股份
SZ002431,棕櫚股份
SZ002432,九安醫療
SZ002434,萬里揚
SZ002436,興森科技
SZ002437,譽衡藥業
SZ002438,江蘇神通
SZ002439,啟明星辰
SZ002440,閏土股份
SZ002441,眾業達
SZ002444,巨星科技
SZ002445,中南文化
SZ002446,盛路通信
SZ002449,國星光電
SZ002453,華軟科技
SZ002455,百川股份
SZ002456,歐菲光
SZ002458,益生股份
SZ002459,晶澳科技
SZ002460,贛鋒鋰業
SZ002461,珠江啤酒
SZ002463,滬電股份
SZ002465,海格通信
SZ002466,天齊鋰業
SZ002467,二六三
SZ002468,申通快遞
SZ002470,金正大
SZ002472,雙環傳動
SZ002475,立訊精密
SZ002478,常寶股份
SZ002481,雙塔食品
SZ002483,潤邦股份
SZ002484,江海股份
SZ002487,大金重工
SZ002488,金固股份
SZ002489,浙江永強
SZ002491,通鼎互聯
SZ002493,榮盛石化
SZ002497,雅化集團
SZ002498,漢纜股份
SZ002500,山西證券
SZ002501,利源股份
SZ002506,協鑫集成
SZ002507,涪陵榨菜
SZ002508,老闆電器
SZ002511,中順潔柔
SZ002512,達華智能
SZ002514,寶馨科技
SZ002515,金字火腿
SZ002516,曠達科技
SZ002517,愷英網絡
SZ002518,科士達
SZ002519,銀河電子
SZ002520,日發精機
SZ002527,新時達
SZ002530,金財互聯
SZ002531,天順風能
SZ002532,天山鋁業
SZ002533,金杯電工
SZ002534,西子潔能
SZ002536,飛龍股份
SZ002537,海聯金匯
SZ002538,司爾特
SZ002539,雲圖控股
SZ002540,亞太科技
SZ002541,鴻路鋼構
SZ002542,中化岩土
SZ002543,萬和電氣
SZ002544,普天科技
SZ002545,東方鐵塔
SZ002547,春興精工
SZ002549,凱美特氣
SZ002550,千紅製藥
SZ002552,寶鼎科技
SZ002555,三七互娛
SZ002556,輝隆股份
SZ002557,洽洽食品
SZ002558,巨人網絡
SZ002559,亞威股份
SZ002563,森馬服飾
SZ002567,唐人神
SZ002568,百潤股份
SZ002572,索菲亞
SZ002573,清新環境
SZ002579,中京電子
SZ002581,未名醫藥
SZ002583,海能達
SZ002585,雙星新材
SZ002588,史丹利
SZ002589,瑞康醫藥
SZ002590,萬安科技
SZ002594,比亞迪
SZ002595,豪邁科技
SZ002597,金禾實業
SZ002600,領益智造
SZ002601,龍佰集團
SZ002602,世紀華通
SZ002603,以嶺藥業
SZ002605,姚記科技
SZ002607,中公教育
SZ002608,江蘇國信
SZ002609,捷順科技
SZ002611,東方精工
SZ002612,朗姿股份
SZ002614,奧佳華
SZ002617,露笑科技
SZ002623,亞瑪頓
SZ002624,完美世界
SZ002625,光啟技術
SZ002626,金達威
SZ002635,安潔科技
SZ002636,金安國紀
SZ002637,贊宇科技
SZ002639,雪人股份
SZ002640,跨境通
SZ002641,公元股份
SZ002642,榮聯科技
SZ002643,萬潤股份
SZ002644,佛慈製藥
SZ002645,華宏科技
SZ002646,天佑德酒
SZ002648,衛星化學
SZ002649,博彥科技
SZ002651,利君股份
SZ002653,海思科
SZ002654,萬潤科技
SZ002657,中科金財
SZ002658,雪迪龍
SZ002662,京威股份
SZ002664,信質集團
SZ002668,ＴＣＬ智家
SZ002670,國盛金控
SZ002672,東江環保
SZ002673,西部證券
SZ002675,東誠藥業
SZ002677,浙江美大
SZ002678,珠江鋼琴
SZ002681,奮達科技
SZ002683,廣東宏大
SZ002690,美亞光電
SZ002695,煌上煌
SZ002697,紅旗連鎖
SZ002698,博實股份
SZ002701,奧瑞金
SZ002703,浙江世寶
SZ002705,新寶股份
SZ002706,良信股份
SZ002707,眾信旅遊
SZ002709,天賜材料
SZ002714,牧原股份
SZ002716,湖南白銀
SZ002717,嶺南股份
SZ002724,海洋王
SZ002726,龍大美食
SZ002727,一心堂
SZ002728,特一藥業
SZ002733,雄韜股份
SZ002736,國信證券
SZ002737,葵花藥業
SZ002738,中礦資源
SZ002739,萬達電影
SZ002741,光華科技
SZ002745,木林森
SZ002746,仙壇股份
SZ002747,埃斯頓
SZ002749,國光股份
SZ002752,昇興股份
SZ002755,奧賽康
SZ002756,永興材料
SZ002758,浙農股份
SZ002759,天際股份
SZ002761,浙江建投
SZ002768,國恩股份
SZ002773,康弘藥業
SZ002777,久遠銀海
SZ002782,可立克
SZ002785,萬里石
SZ002786,銀寶山新
SZ002791,堅朗五金
SZ002792,通宇通訊
SZ002793,羅欣藥業
SZ002797,第一創業
SZ002801,微光股份
SZ002803,吉宏股份
SZ002807,江陰銀行
SZ002810,山東赫達
SZ002812,恩捷股份
SZ002815,崇達技術
SZ002818,富森美
SZ002819,東方中科
SZ002821,凱萊英
SZ002824,和勝股份
SZ002829,星網宇達
SZ002831,裕同科技
SZ002832,比音勒芬
SZ002833,弘亞數控
SZ002837,英維克
SZ002838,道恩股份
SZ002839,張家港行
SZ002840,華統股份
SZ002841,視源股份
SZ002843,泰嘉股份
SZ002845,同興達
SZ002847,鹽津鋪子
SZ002850,科達利
SZ002851,麥格米特
SZ002855,捷榮技術
SZ002859,潔美科技
SZ002865,鈞達股份
SZ002866,傳藝科技
SZ002867,周大生
SZ002876,三利譜
SZ002880,衛光生物
SZ002881,美格智能
SZ002882,金龍羽
SZ002884,凌霄泵業
SZ002891,中寵股份
SZ002892,科力爾
SZ002895,川恒股份
SZ002896,中大力德
SZ002897,意華股份
SZ002901,大博醫療
SZ002902,銘普光磁
SZ002906,華陽集團
SZ002907,華森製藥
SZ002908,德生科技
SZ002911,佛燃能源
SZ002912,中新賽克
SZ002913,奧士康
SZ002915,中欣氟材
SZ002916,深南電路
SZ002918,蒙娜麗莎
SZ002919,名臣健康
SZ002920,德賽西威
SZ002922,伊戈爾
SZ002925,盈趣科技
SZ002926,華西證券
SZ002928,華夏航空
SZ002929,潤建股份
SZ002930,宏川智慧
SZ002932,明德生物
SZ002935,天奧電子
SZ002936,鄭州銀行
SZ002937,興瑞科技
SZ002938,鵬鼎控股
SZ002939,長城證券
SZ002941,新疆交建
SZ002945,華林證券
SZ002946,新乳業
SZ002947,恒銘達
SZ002948,青島銀行
SZ002950,奧美醫療
SZ002955,鴻合科技
SZ002957,科瑞技術
SZ002958,青農商行
SZ002959,小熊電器
SZ002960,青鳥消防
SZ002961,瑞達期貨
SZ002965,祥鑫科技
SZ002966,蘇州銀行
SZ002967,廣電計量
SZ002970,銳明技術
SZ002975,博杰股份
SZ002978,安寧股份
SZ002979,雷賽智能
SZ002984,森麒麟
SZ002985,北摩高科
SZ002986,宇新股份
SZ002987,京北方
SZ002990,盛視科技
SZ002991,甘源食品
SZ002992,寶明科技
SZ002993,奧海科技
SZ002996,順博合金
SZ002997,瑞鵠模具
SZ003000,勁仔食品
SZ003005,競業達
SZ003006,百亞股份
SZ003009,中天火箭
SZ003012,東鵬控股
SZ003013,地鐵設計
SZ003021,兆威機電
SZ003022,聯泓新科
SZ003028,振邦智能
SZ003031,中瓷電子
SZ003032,傳智教育
SZ003035,南網能源
SZ003037,三和管樁
SZ003038,鑫鉑股份
SZ003039,順控發展
SZ003040,楚天龍
SZ003816,中國廣核
SZ159516,半導體設備ＥＴＦ
SZ159549,紅利低波動ＥＴＦ
SZ159601,Ａ５０ＥＴＦ
SZ159602,中國Ａ５０ＥＴＦ
SZ159603,雙創龍頭ＥＴＦ
SZ159610,５００ＥＴＦ增強
SZ159611,電力ＥＴＦ
SZ159623,成渝經濟圈ＥＴＦ
SZ159628,國證２０００ＥＴＦ
SZ159629,１０００ＥＴＦ
SZ159633,中證１０００指數ＥＴＦ
SZ159637,新能源車龍頭ＥＴＦ
SZ159638,高端裝備ＥＴＦ
SZ159639,碳中和ＥＴＦ南方
SZ159647,中藥ＥＴＦ
SZ159671,稀有金屬ＥＴＦ基金
SZ159673,滬深３００ＥＴＦ鵬華
SZ159681,創５０ＥＴＦ
SZ159682,創業５０ＥＴＦ
SZ159732,消費電子ＥＴＦ
SZ159736,飲食ＥＴＦ
SZ159745,建材ＥＴＦ
SZ159755,電池ＥＴＦ
SZ159766,旅遊ＥＴＦ
SZ159770,機器人ＥＴＦ
SZ159780,雙創ＥＴＦ
SZ159781,科創創業ＥＴＦ
SZ159782,雙創５０ＥＴＦ
SZ159783,科創創業５０ＥＴＦ
SZ159790,碳中和ＥＴＦ
SZ159796,電池５０ＥＴＦ
SZ159801,芯片ＥＴＦ龍頭
SZ159806,新能源車ＥＴＦ
SZ159807,科技ＥＴＦ
SZ159813,半導體ＥＴＦ
SZ159814,創業大盤ＥＴＦ
SZ159819,人工智能ＥＴＦ
SZ159820,中證５００ＥＴＦ天弘
SZ159825,農業ＥＴＦ
SZ159828,醫療ＥＴＦ
SZ159837,生物科技ＥＴＦ
SZ159840,鋰電池ＥＴＦ
SZ159841,證券ＥＴＦ
SZ159842,券商ＥＴＦ
SZ159845,中證１０００ＥＴＦ
SZ159847,醫療５０ＥＴＦ
SZ159852,軟件ＥＴＦ
SZ159857,光伏ＥＴＦ
SZ159859,生物醫藥ＥＴＦ
SZ159869,遊戲ＥＴＦ
SZ159870,化工ＥＴＦ
SZ159875,新能源ＥＴＦ
SZ159883,醫療器械ＥＴＦ
SZ159901,深證１００ＥＴＦ
SZ159905,深紅利ＥＴＦ
SZ159908,創業板ＥＴＦ博時
SZ159915,創業板ＥＴＦ
SZ159919,滬深３００ＥＴＦ
SZ159922,中證５００ＥＴＦ
SZ159925,滬深３００ＥＴＦ南方
SZ159928,消費ＥＴＦ
SZ159929,醫藥ＥＴＦ
SZ159938,醫藥衛生ＥＴＦ
SZ159939,信息技術ＥＴＦ
SZ159940,金融地產ＥＴＦ
SZ159948,創業板ＥＴＦ南方
SZ159949,創業板５０ＥＴＦ
SZ159952,創業板ＥＴＦ廣發
SZ159957,創業板１００ＥＴＦ華夏
SZ159959,央企ＥＴＦ
SZ159967,創業板成長ＥＴＦ
SZ159968,中證５００ＥＴＦ博時
SZ159971,創業板ＥＴＦ富國
SZ159977,創業板ＥＴＦ天弘
SZ159982,中證５００ＥＴＦ鵬華
SZ159992,創新藥ＥＴＦ
SZ159993,證券ＥＴＦ龍頭
SZ159994,５ＧＥＴＦ
SZ159995,芯片ＥＴＦ
SZ159996,家電ＥＴＦ
SZ159997,電子ＥＴＦ
SZ159998,計算機ＥＴＦ
SZ300001,特銳德
SZ300002,神州泰嶽
SZ300003,樂普醫療
SZ300005,探路者
SZ300007,漢威科技
SZ300008,天海防務
SZ300009,安科生物
SZ300010,豆神教育
SZ300012,華測檢測
SZ300014,億緯鋰能
SZ300015,愛爾眼科
SZ300017,網宿科技
SZ300019,硅寶科技
SZ300024,機器人
SZ300025,華星創業
SZ300026,紅日藥業
SZ300027,華誼兄弟
SZ300031,寶通科技
SZ300033,同花順
SZ300034,鋼研高納
SZ300035,中科電氣
SZ300036,超圖軟件
SZ300037,新宙邦
SZ300039,上海凱寶
SZ300041,回天新材
SZ300042,朗科科技
SZ300045,華力創通
SZ300047,天源迪科
SZ300048,合康新能
SZ300049,福瑞股份
SZ300052,中青寶
SZ300053,航宇微
SZ300054,鼎龍股份
SZ300055,萬邦達
SZ300057,萬順新材
SZ300058,藍色光標
SZ300059,東方財富
SZ300065,海蘭信
SZ300066,三川智慧
SZ300068,南都電源
SZ300070,碧水源
SZ300072,海新能科
SZ300073,當升科技
SZ300075,數字政通
SZ300077,國民技術
SZ300079,數碼視訊
SZ300080,易成新能
SZ300081,恒信東方
SZ300083,創世紀
SZ300085,銀之傑
SZ300087,荃銀高科
SZ300088,長信科技
SZ300093,金剛光伏
SZ300094,國聯水產
SZ300098,高新興
SZ300101,振芯科技
SZ300102,乾照光電
SZ300109,新開源
SZ300110,華仁藥業
SZ300113,順網科技
SZ300114,中航電測
SZ300115,長盈精密
SZ300118,東方日升
SZ300119,瑞普生物
SZ300122,智飛生物
SZ300123,亞光科技
SZ300124,匯川技術
SZ300127,銀河磁體
SZ300128,錦富技術
SZ300129,泰勝風能
SZ300130,新國都
SZ300131,英唐智控
SZ300133,華策影視
SZ300134,大富科技
SZ300136,信維通信
SZ300138,晨光生物
SZ300140,節能環境
SZ300142,沃森生物
SZ300143,盈康生命
SZ300144,宋城演藝
SZ300145,中金環境
SZ300146,湯臣倍健
SZ300151,昌紅科技
SZ300158,振東製藥
SZ300160,秀強股份
SZ300161,華中數控
SZ300166,東方國信
SZ300168,萬達信息
SZ300170,漢得信息
SZ300171,東富龍
SZ300174,元力股份
SZ300177,中海達
SZ300180,華峰超纖
SZ300181,佐力藥業
SZ300182,捷成股份
SZ300183,東軟載波
SZ300184,力源信息
SZ300185,通裕重工
SZ300188,國投智能
SZ300191,潛能恒信
SZ300197,節能鐵漢
SZ300199,翰宇藥業
SZ300203,聚光科技
SZ300206,理邦儀器
SZ300207,欣旺達
SZ300210,森遠股份
SZ300212,易華錄
SZ300217,東方電熱
SZ300219,鴻利智匯
SZ300222,科大智能
SZ300223,北京君正
SZ300224,正海磁材
SZ300226,上海鋼聯
SZ300229,拓爾思
SZ300232,洲明科技
SZ300233,金城醫藥
SZ300236,上海新陽
SZ300244,迪安診斷
SZ300251,光線傳媒
SZ300252,金信諾
SZ300253,衛寧健康
SZ300255,常山藥業
SZ300256,星星科技
SZ300257,開山股份
SZ300258,精鍛科技
SZ300260,新萊應材
SZ300261,雅本化學
SZ300263,隆華科技
SZ300267,爾康製藥
SZ300271,華宇軟件
SZ300274,陽光電源
SZ300276,三豐智能
SZ300278,華昌達
SZ300280,紫天科技
SZ300284,蘇交科
SZ300285,國瓷材料
SZ300286,安科瑞
SZ300287,飛利信
SZ300288,朗瑪信息
SZ300291,百納千成
SZ300292,吳通控股
SZ300294,博雅生物
SZ300296,利亞德
SZ300298,三諾生物
SZ300302,同有科技
SZ300303,聚飛光電
SZ300304,雲意電氣
SZ300307,慈星股份
SZ300308,中際旭創
SZ300315,掌趣科技
SZ300316,晶盛機電
SZ300318,博暉創新
SZ300319,麥捷科技
SZ300320,海達股份
SZ300323,華燦光電
SZ300324,旋極信息
SZ300327,中穎電子
SZ300331,蘇大維格
SZ300332,天壕能源
SZ300337,銀邦股份
SZ300339,潤和軟件
SZ300341,麥克奧迪
SZ300342,天銀機電
SZ300343,聯創股份
SZ300345,華民股份
SZ300346,南大光電
SZ300347,泰格醫藥
SZ300348,長亮科技
SZ300349,金卡智能
SZ300351,永貴電器
SZ300352,北信源
SZ300353,東土科技
SZ300354,東華測試
SZ300355,蒙草生態
SZ300357,我武生物
SZ300358,楚天科技
SZ300360,炬華科技
SZ300363,博騰股份
SZ300364,中文在線
SZ300366,創意信息
SZ300369,綠盟科技
SZ300373,揚傑科技
SZ300377,贏時勝
SZ300378,鼎捷數智
SZ300379,東方通
SZ300382,斯萊克
SZ300383,光環新網
SZ300384,三聯虹普
SZ300389,艾比森
SZ300390,天華新能
SZ300393,中來股份
SZ300394,天孚通信
SZ300395,菲利華
SZ300396,迪瑞醫療
SZ300397,天和防務
SZ300398,飛凱材料
SZ300401,花園生物
SZ300406,九強生物
SZ300408,三環集團
SZ300409,道氏技術
SZ300413,芒果超媒
SZ300415,伊之密
SZ300416,蘇試試驗
SZ300418,昆侖萬維
SZ300428,立中集團
SZ300429,強力新材
SZ300432,富臨精工
SZ300433,藍思科技
SZ300435,中泰股份
SZ300438,鵬輝能源
SZ300442,潤澤科技
SZ300443,金雷股份
SZ300444,雙杰電氣
SZ300446,航天智造
SZ300450,先導智能
SZ300451,創業慧康
SZ300454,深信服
SZ300455,航天智裝
SZ300456,賽微電子
SZ300457,贏合科技
SZ300458,全志科技
SZ300459,湯姆貓
SZ300463,邁克生物
SZ300468,四方精創
SZ300470,中密控股
SZ300471,厚普股份
SZ300474,景嘉微
SZ300475,香農芯創
SZ300476,勝宏科技
SZ300480,光力科技
SZ300481,濮陽惠成
SZ300482,萬孚生物
SZ300485,賽升藥業
SZ300487,藍曉科技
SZ300492,華圖山鼎
SZ300494,盛天網絡
SZ300496,中科創達
SZ300497,富祥藥業
SZ300498,溫氏股份
SZ300502,新易盛
SZ300503,昊誌機電
SZ300504,天邑股份
SZ300507,蘇奧傳感
SZ300510,金冠股份
SZ300516,久之洋
SZ300520,科大國創
SZ300523,辰安科技
SZ300525,博思軟件
SZ300527,中船應急
SZ300529,健帆生物
SZ300532,今天國際
SZ300533,冰川網絡
SZ300548,博創科技
SZ300551,古鰲科技
SZ300552,萬集科技
SZ300558,貝達藥業
SZ300559,佳發教育
SZ300567,精測電子
SZ300568,星源材質
SZ300569,天能重工
SZ300570,太辰光
SZ300573,興齊眼藥
SZ300576,容大感光
SZ300579,數字認證
SZ300580,貝斯特
SZ300581,晨曦航空
SZ300586,美聯新材
SZ300587,天鐵股份
SZ300589,江龍船艇
SZ300590,移為通信
SZ300592,華凱易佰
SZ300593,新雷能
SZ300595,歐普康視
SZ300596,利安隆
SZ300598,誠邁科技
SZ300601,康泰生物
SZ300602,飛榮達
SZ300603,立昂技術
SZ300604,長川科技
SZ300607,拓斯達
SZ300613,富瀚微
SZ300617,安靠智電
SZ300618,寒銳鈷業
SZ300619,金銀河
SZ300620,光庫科技
SZ300623,捷捷微電
SZ300624,萬興科技
SZ300627,華測導航
SZ300628,億聯網絡
SZ300630,普利製藥
SZ300633,開立醫療
SZ300634,彩訊股份
SZ300638,廣和通
SZ300639,凱普生物
SZ300653,正海生物
SZ300655,晶瑞電材
SZ300657,弘信電子
SZ300659,中孚信息
SZ300660,江蘇雷利
SZ300661,聖邦股份
SZ300662,科銳國際
SZ300663,科藍軟件
SZ300666,江豐電子
SZ300671,富滿微
SZ300672,國科微
SZ300674,宇信科技
SZ300676,華大基因
SZ300677,英科醫療
SZ300678,中科信息
SZ300679,電連技術
SZ300681,英搏爾
SZ300682,朗新集團
SZ300684,中石科技
SZ300685,艾德生物
SZ300687,賽意信息
SZ300688,創業黑馬
SZ300693,盛弘股份
SZ300696,愛樂達
SZ300699,光威複材
SZ300702,天宇股份
SZ300705,九典製藥
SZ300708,聚燦光電
SZ300709,精研科技
SZ300712,永福股份
SZ300718,長盛軸承
SZ300722,新余國科
SZ300723,一品紅
SZ300724,捷佳偉創
SZ300725,藥石科技
SZ300726,宏達電子
SZ300729,樂歌股份
SZ300735,光弘科技
SZ300737,科順股份
SZ300738,奧飛數據
SZ300740,水羊股份
SZ300741,華寶股份
SZ300747,銳科激光
SZ300748,金力永磁
SZ300750,寧德時代
SZ300751,邁為股份
SZ300755,華致酒行
SZ300757,羅博特科
SZ300759,康龍化成
SZ300760,邁瑞醫療
SZ300761,立華股份
SZ300762,上海瀚訊
SZ300763,錦浪科技
SZ300765,新諾威
SZ300766,每日互動
SZ300768,迪普科技
SZ300769,德方納米
SZ300770,新媒股份
SZ300772,運達股份
SZ300773,拉卡拉
SZ300775,三角防務
SZ300776,帝爾激光
SZ300777,中簡科技
SZ300779,惠城環保
SZ300781,因賽集團
SZ300782,卓勝微
SZ300783,三隻松鼠
SZ300785,值得買
SZ300788,中信出版
SZ300790,宇瞳光學
SZ300791,仙樂健康
SZ300792,壹網壹創
SZ300793,佳禾智能
SZ300795,米奧會展
SZ300796,貝斯美
SZ300802,矩子科技
SZ300803,指南針
SZ300806,斯迪克
SZ300809,華辰裝備
SZ300811,鉑科新材
SZ300814,中富電路
SZ300815,玉禾田
SZ300820,英傑電氣
SZ300821,東嶽硅材
SZ300825,阿爾特
SZ300827,上能電氣
SZ300832,新產業
SZ300833,浩洋股份
SZ300841,康華生物
SZ300842,帝科股份
SZ300846,首都在線
SZ300847,中船漢光
SZ300848,美瑞新材
SZ300850,新強聯
SZ300855,圖南股份
SZ300856,科思股份
SZ300857,協創數據
SZ300858,科拓生物
SZ300860,鋒尚文化
SZ300861,美暢股份
SZ300866,安克創新
SZ300869,康泰醫學
SZ300870,歐陸通
SZ300872,天陽科技
SZ300873,海晨股份
SZ300882,萬勝智能
SZ300887,譜尼測試
SZ300888,穩健醫療
SZ300893,松原股份
SZ300894,火星人
SZ300896,愛美客
SZ300900,廣聯航空
SZ300910,瑞豐新材
SZ300913,兆龍互連
SZ300919,中偉股份
SZ300925,法本信息
SZ300926,博俊科技
SZ300951,博碩科技
SZ300953,震裕科技
SZ300957,貝泰妮
SZ300969,恒帥股份
SZ300972,萬辰集團
SZ300973,立高食品
SZ300975,商絡電子
SZ300978,東箭科技
SZ300979,華利集團
SZ300981,中紅醫療
SZ300982,蘇文電能
SZ300990,同飛股份
SZ300997,歡樂家
SZ300999,金龍魚
SZ301004,嘉益股份
SZ301015,百洋醫藥
SZ301017,漱玉平民
SZ301018,申菱環境
SZ301029,怡合達
SZ301030,仕淨科技
SZ301031,中熔電氣
SZ301035,潤豐股份
SZ301039,中集車輛
SZ301047,義翹神州
SZ301048,金鷹重工
SZ301050,雷電微力
SZ301051,信濠光電
SZ301058,中糧科工
SZ301060,蘭衛醫學
SZ301061,匠心家居
SZ301069,凱盛新材
SZ301071,力量鑽石
SZ301073,君亭酒店
SZ301078,孩子王
SZ301080,百普賽斯
SZ301085,亞康股份
SZ301087,可孚醫療
SZ301089,拓新藥業
SZ301090,華潤材料
SZ301091,深城交
SZ301095,廣立微
SZ301096,百誠醫藥
SZ301101,明月鏡片
SZ301102,兆訊傳媒
SZ301103,何氏眼科
SZ301109,軍信股份
SZ301116,益客食品
SZ301123,奕東電子
SZ301149,隆華新材
SZ301153,中科江南
SZ301155,海力風電
SZ301162,國能日新
SZ301165,銳捷網絡
SZ301168,通靈股份
SZ301171,易點天下
SZ301172,君逸數碼
SZ301175,中科環保
SZ301177,迪阿股份
SZ301179,澤宇智能
SZ301180,萬祥科技
SZ301191,菲菱科思
SZ301195,北路智控
SZ301200,大族數控
SZ301202,朗威股份
SZ301205,聯特科技
SZ301206,三元生物
SZ301207,華蘭疫苗
SZ301211,亨迪藥業
SZ301215,中汽股份
SZ301216,萬凱新材
SZ301217,銅冠銅箔
SZ301219,騰遠鈷業
SZ301221,光庭信息
SZ301236,軟通動力
SZ301238,瑞泰新材
SZ301239,普瑞眼科
SZ301246,宏源藥業
SZ301251,威爾高
SZ301260,格力博
SZ301262,海看股份
SZ301263,泰恩康
SZ301266,宇邦新材
SZ301267,華廈眼科
SZ301268,銘利達
SZ301269,華大九天
SZ301286,僑源股份
SZ301291,明陽電氣
SZ301293,三博腦科
SZ301297,富樂德
SZ301301,川寧生物
SZ301303,真蘭儀表
SZ301305,朗坤環境
SZ301307,美利信
SZ301308,江波龍
SZ301311,昆船智能
SZ301312,智立方
SZ301315,威士頓
SZ301316,慧博雲通
SZ301325,曼恩斯特
SZ301327,華寶新能
SZ301328,維峰電子
SZ301330,熵基科技
SZ301332,德爾瑪
SZ301333,諾思格
SZ301339,通行寶
SZ301345,濤濤車業
SZ301348,藍箭電子
SZ301358,湖南裕能
SZ301363,美好醫療
SZ301366,一博科技
SZ301367,怡和嘉業
SZ301368,豐立智能
SZ301370,國科恒泰
SZ301371,敷爾佳
SZ301376,致歐科技
SZ301377,鼎泰高科
SZ301381,賽維時代
SZ301382,蜂助手
SZ301383,天鍵股份
SZ301389,隆揚電子
SZ301391,卡萊特
SZ301392,匯成真空
SZ301393,昊帆生物
SZ301408,華人健康
SZ301421,波長光電
SZ301439,泓淋電力
SZ301456,盤古智能
SZ301486,致尚科技
SZ301487,盟固利
SZ301488,豪恩汽電
SZ301498,乖寶寵物
SZ301500,飛南資源
SZ301507,民生健康
SZ301508,中機認檢
SZ301509,金凱生科
SZ301510,固高科技
SZ301511,德福科技
SZ301516,中遠通
SZ301517,陝西華達
SZ301525,儒競科技
SZ301526,國際複材
SZ301536,星宸科技
SZ301550,斯菱股份
SZ301558,三態股份
SZ301559,中集環科
SZ301565,中侖新材
SZ301566,達利凱普
SZ301571,國科天成
SZ301580,愛迪特
SZ301589,諾瓦星雲
SZ301596,瑞迪智驅
SZ301603,喬鋒智能
SZ301606,綠聯科技
SZ301608,博實結
SZ301611,珂瑪科技
