SH600020,中原高速
SH600030,中信证券
SH600037,歌华有线
SH600050,中国联通
SH600054,黄山旅游
SH600055,万东医疗
SH600060,海信视像
SH600062,华润双鹤
SH600073,上海梅林
SH600079,人福医药
SH600085,同仁堂
SH600089,特变电工
SH600098,广州发展
SH600100,同方股份
SH600101,明星电力
SH600103,青山纸业
SH600104,上汽集团
SH600105,永鼎股份
SH600131,国网信通
SH600138,中青旅
SH600143,金发科技
SH600161,天坛生物
SH600163,中闽能源
SH600166,福田汽车
SH600171,上海贝岭
SH600183,生益科技
SH600186,莲花健康
SH600189,泉阳泉
SH600191,华资实业
SH600192,长城电工
SH600196,复星医药
SH600198,大唐电信
SH600200,江苏吴中
SH600206,有研新材
SH600212,绿能慧充
SH600216,浙江医药
SH600218,全柴动力
SH600225,卓朗科技
SH600226,瀚叶股份
SH600227,赤天化
SH600228,返利科技
SH600246,万通发展
SH600251,冠农股份
SH600258,首旅酒店
SH600261,阳光照明
SH600267,海正药业
SH600268,国电南自
SH600271,航天信息
SH600276,恒瑞医药
SH600277,亿利洁能
SH600280,中央商场
SH600287,江苏舜天
SH600297,广汇汽车
SH600298,安琪酵母
SH600300,维维股份
SH600305,恒顺醋业
SH600312,平高电气
SH600327,大东方
SH600330,天通股份
SH600336,澳柯玛
SH600345,长江通信
SH600353,旭光电子
SH600355,精伦电子
SH600360,华微电子
SH600380,健康元
SH600381,青海春天
SH600386,北巴传媒
SH600405,动力源
SH600406,国电南瑞
SH600410,华胜天成
SH600415,小商品城
SH600419,天润乳业
SH600420,国药现代
SH600429,三元股份
SH600436,片仔癀
SH600438,通威股份
SH600446,金证股份
SH600455,博通股份
SH600476,湘邮科技
SH600480,凌云股份
SH600487,亨通光电
SH600488,津药药业
SH600498,烽火通信
SH600501,航天晨光
SH600513,联环药业
SH600517,国网英大
SH600519,贵州茅台
SH600521,华海药业
SH600522,中天科技
SH600523,贵航股份
SH600525,长园集团
SH600536,中国软件
SH600550,保变电气
SH600556,天下秀
SH600562,国睿科技
SH600570,恒生电子
SH600571,信雅达
SH600576,祥源文旅
SH600584,长电科技
SH600588,用友网络
SH600590,泰豪科技
SH600593,大连圣亚
SH600597,光明乳业
SH600600,青岛啤酒
SH600601,方正科技
SH600602,云赛智联
SH600609,金杯汽车
SH600613,神奇制药
SH600619,海立股份
SH600626,申达股份
SH600628,新世界
SH600633,浙数文化
SH600636,国新文化
SH600660,福耀玻璃
SH600661,昂立教育
SH600664,哈药股份
SH600676,交运股份
SH600682,南京新百
SH600690,海尔智家
SH600693,东百集团
SH600694,大商股份
SH600697,欧亚集团
SH600698,湖南天雁
SH600699,均胜电子
SH600702,舍得酒业
SH600703,三安光电
SH600706,曲江文旅
SH600712,南宁百货
SH600718,东软集团
SH600721,百花医药
SH600728,佳都科技
SH600729,重庆百货
SH600730,中国高科
SH600733,北汽蓝谷
SH600737,中粮糖业
SH600738,丽尚国潮
SH600741,华域汽车
SH600742,一汽富维
SH600745,闻泰科技
SH600749,西藏旅游
SH600754,锦江酒店
SH600756,浪潮软件
SH600763,通策医疗
SH600774,汉商集团
SH600776,东方通信
SH600778,友好集团
SH600785,新华百货
SH600789,鲁抗医药
SH600790,轻纺城
SH600797,浙大网新
SH600809,山西汾酒
SH600812,华北制药
SH600814,杭州解百
SH600824,益民集团
SH600827,百联股份
SH600828,茂业商业
SH600831,广电网络
SH600834,申通地铁
SH600837,海通证券
SH600838,上海九百
SH600839,四川长虹
SH600845,宝信软件
SH600850,电科数字
SH600851,海欣股份
SH600854,春兰股份
SH600857,宁波中百
SH600858,银座股份
SH600859,王府井
SH600865,百大集团
SH600866,星湖科技
SH600869,远东股份
SH600872,中炬高新
SH600873,梅花生物
SH600879,航天电子
SH600880,博瑞传播
SH600882,妙可蓝多
SH600887,伊利股份
SH600894,广日股份
SH600900,长江电力
SH600905,三峡能源
SH600933,爱柯迪
SH600936,广西广电
SH600941,中国移动
SH600958,东方证券
SH600959,江苏有线
SH600960,渤海汽车
SH600962,国投中鲁
SH600969,郴电国际
SH600979,广安爱众
SH600983,惠而浦
SH600995,南网储能
SH600996,贵广网络
SH600999,招商证券
SH601007,金陵饭店
SH601010,文峰股份
SH601012,隆基绿能
SH601086,国芳集团
SH601089,福元医药
SH601096,宏盛华源
SH601107,四川成渝
SH601116,三江购物
SH601126,四方股份
SH601127,赛力斯
SH601137,博威合金
SH601138,工业富联
SH601179,中国西电
SH601208,东材科技
SH601211,国泰君安
SH601222,林洋能源
SH601279,英利汽车
SH601360,三六零
SH601366,利群股份
SH601377,兴业证券
SH601512,中新集团
SH601519,大智慧
SH601567,三星医疗
SH601609,金田股份
SH601616,广电电气
SH601669,中国电建
SH601677,明泰铝业
SH601688,华泰证券
SH601689,拓普集团
SH601700,风范股份
SH601717,郑煤机
SH601727,上海电气
SH601728,中国电信
SH601789,宁波建工
SH601799,星宇股份
SH601828,美凯龙
SH601869,长飞光纤
SH601877,正泰电器
SH601888,中国中免
SH601929,吉视传媒
SH601933,永辉超市
SH601956,东贝集团
SH601985,中国核电
SH603000,人民网
SH603002,宏昌电子
SH603003,龙宇股份
SH603005,晶方科技
SH603006,联明股份
SH603009,北特科技
SH603012,创力集团
SH603013,亚普股份
SH603015,弘讯科技
SH603016,新宏泰
SH603019,中科曙光
SH603020,爱普股份
SH603023,威帝股份
SH603027,千禾味业
SH603035,常熟汽饰
SH603037,凯众股份
SH603038,华立股份
SH603039,泛微网络
SH603040,新坐标
SH603042,华脉科技
SH603043,广州酒家
SH603048,浙江黎明
SH603050,科林电气
SH603057,紫燕食品
SH603075,热威股份
SH603079,圣达生物
SH603083,剑桥科技
SH603085,天成自控
SH603089,正裕工业
SH603097,江苏华辰
SH603099,长白山
SH603101,汇嘉时代
SH603102,百合股份
SH603105,芯能科技
SH603107,上海汽配
SH603108,润达医疗
SH603109,神驰机电
SH603112,华翔股份
SH603115,海星股份
SH603118,共进股份
SH603121,华培动力
SH603123,翠微股份
SH603127,昭衍新药
SH603136,天目湖
SH603138,海量数据
SH603156,养元饮品
SH603158,腾龙股份
SH603161,科华控股
SH603166,福达股份
SH603168,莎普爱思
SH603170,宝立食品
SH603171,税友股份
SH603178,圣龙股份
SH603179,新泉股份
SH603182,嘉华股份
SH603186,华正新材
SH603189,网达软件
SH603190,亚通精工
SH603195,公牛集团
SH603197,保隆科技
SH603199,九华旅游
SH603201,常润股份
SH603211,晋拓股份
SH603214,爱婴室
SH603215,比依股份
SH603219,富佳股份
SH603220,中贝通信
SH603222,济民医疗
SH603228,景旺电子
SH603229,奥翔药业
SH603232,格尔软件
SH603235,天新药业
SH603236,移远通信
SH603237,五芳斋
SH603239,浙江仙通
SH603256,宏和科技
SH603259,药明康德
SH603280,南方路机
SH603286,日盈电子
SH603288,海天味业
SH603296,华勤技术
SH603298,杭叉集团
SH603303,得邦照明
SH603305,旭升集团
SH603306,华懋科技
SH603311,金海高科
SH603317,天味食品
SH603319,湘油泵
SH603322,超讯通信
SH603327,福蓉科技
SH603328,依顿电子
SH603333,尚纬股份
SH603335,迪生力
SH603345,安井食品
SH603348,文灿股份
SH603351,威尔药业
SH603355,莱克电气
SH603358,华达科技
SH603366,日出东方
SH603367,辰欣药业
SH603369,今世缘
SH603383,顶点软件
SH603390,通达电气
SH603392,万泰生物
SH603421,鼎信通讯
SH603456,九洲药业
SH603458,勘设股份
SH603486,科沃斯
SH603496,恒为科技
SH603501,韦尔股份
SH603508,思维列控
SH603515,欧普照明
SH603517,绝味食品
SH603519,立霸股份
SH603520,司太立
SH603528,多伦科技
SH603530,神马电力
SH603533,掌阅科技
SH603536,惠发食品
SH603538,美诺华
SH603551,奥普家居
SH603556,海兴电力
SH603577,汇金通
SH603578,三星新材
SH603579,荣泰健康
SH603586,金麒麟
SH603596,伯特利
SH603602,纵横通信
SH603605,珀莱雅
SH603610,麒盛科技
SH603613,国联股份
SH603618,杭电股份
SH603629,利通电子
SH603633,徕木股份
SH603636,南威软件
SH603655,朗博科技
SH603656,泰禾智能
SH603657,春光科技
SH603660,苏州科达
SH603662,柯力传感
SH603666,亿嘉和
SH603669,灵康药业
SH603676,卫信康
SH603677,奇精机械
SH603678,火炬电子
SH603679,华体科技
SH603687,大胜达
SH603690,至纯科技
SH603696,安记食品
SH603697,有友食品
SH603701,德宏股份
SH603703,盛洋科技
SH603707,健友股份
SH603708,家家悦
SH603711,香飘飘
SH603716,塞力医疗
SH603719,良品铺子
SH603726,朗迪集团
SH603728,鸣志电器
SH603730,岱美股份
SH603738,泰晶科技
SH603755,日辰股份
SH603758,秦安股份
SH603766,隆鑫通用
SH603767,中马传动
SH603768,常青股份
SH603773,沃格光电
SH603777,来伊份
SH603786,科博达
SH603788,宁波高发
SH603799,华友钴业
SH603803,瑞斯康达
SH603809,豪能股份
SH603811,诚意药业
SH603825,华扬联众
SH603843,正平股份
SH603859,能科科技
SH603860,中公高科
SH603861,白云电器
SH603866,桃李面包
SH603868,飞科电器
SH603869,新智认知
SH603881,数据港
SH603882,金域医学
SH603886,元祖股份
SH603887,城地香江
SH603888,新华网
SH603893,瑞芯微
SH603895,天永智能
SH603917,合力科技
SH603918,金桥信息
SH603922,金鸿顺
SH603926,铁流股份
SH603927,中科软
SH603936,博敏电子
SH603939,益丰药房
SH603949,雪龙集团
SH603950,长源东谷
SH603956,威派格
SH603982,泉峰汽车
SH603986,兆易创新
SH603989,艾华集团
SH603990,麦迪科技
SH603991,至正股份
SH603997,继峰股份
SH605005,合兴股份
SH605016,百龙创园
SH605018,长华集团
SH605056,咸亨国际
SH605068,明新旭腾
SH605077,华康股份
SH605088,冠盛股份
SH605089,味知香
SH605098,行动教育
SH605108,同庆楼
SH605111,新洁能
SH605116,奥锐特
SH605128,上海沿浦
SH605133,嵘泰股份
SH605136,丽人丽妆
SH605151,西上海
SH605168,三人行
SH605177,东亚药业
SH605179,一鸣食品
SH605186,健麾信息
SH605188,国光连锁
SH605198,安德利
SH605208,永茂泰
SH605222,起帆电缆
SH605228,神通科技
SH605255,天普股份
SH605277,新亚电子
SH605300,佳禾食品
SH605319,无锡振华
SH605333,沪光股份
SH605336,帅丰电器
SH605337,李子园
SH605338,巴比食品
SH605339,南侨食品
SH605358,立昂微
SH605365,立达信
SH605388,均瑶健康
SH605398,新炬网络
SH605499,东鹏饮料
SH605507,国邦医药
SH605555,德昌股份
SH605567,春雪食品
SZ000016,深康佳Ａ
SZ000058,深 赛 格
SZ000063,中兴通讯
SZ000070,特发信息
SZ000100,TCL科技
SZ000166,申万宏源
SZ000333,美的集团
SZ000400,许继电气
SZ000404,长虹华意
SZ000417,合肥百货
SZ000419,通程控股
SZ000428,华天酒店
SZ000430,张家界
SZ000501,武商集团
SZ000504,南华生物
SZ000516,国际医学
SZ000521,长虹美菱
SZ000524,岭南控股
SZ000526,学大教育
SZ000538,云南白药
SZ000541,佛山照明
SZ000551,创元科技
SZ000558,莱茵体育
SZ000568,泸州老窖
SZ000586,汇源通信
SZ000596,古井贡酒
SZ000610,西安旅游
SZ000625,长安汽车
SZ000651,格力电器
SZ000661,长春高新
SZ000679,大连友谊
SZ000701,厦门信达
SZ000715,中兴商业
SZ000721,西安饮食
SZ000725,京东方A
SZ000759,中百集团
SZ000776,广发证券
SZ000785,居然之家
SZ000799,酒鬼酒
SZ000801,四川九洲
SZ000810,创维数字
SZ000858,五粮液
SZ000861,海印股份
SZ000882,华联股份
SZ000888,峨眉山Ａ
SZ000906,浙商中拓
SZ000921,海信家电
SZ000938,紫光股份
SZ000963,华东医药
SZ000973,佛塑科技
SZ000978,桂林旅游
SZ001208,华菱线缆
SZ001216,华瓷股份
SZ001259,利仁科技
SZ001387,雪祺电气
SZ002011,盾安环境
SZ002027,分众传媒
SZ002028,思源电气
SZ002032,苏 泊 尔
SZ002033,丽江股份
SZ002035,华帝股份
SZ002044,美年健康
SZ002049,紫光国微
SZ002050,三花智控
SZ002059,云南旅游
SZ002076,星光股份
SZ002129,TCL中环
SZ002132,恒星科技
SZ002159,三特索道
SZ002172,澳洋健康
SZ002173,创新医疗
SZ002179,中航光电
SZ002186,全 聚 德
SZ002187,广百股份
SZ002219,新里程
SZ002227,奥 特 迅
SZ002230,科大讯飞
SZ002236,大华股份
SZ002241,歌尔股份
SZ002242,九阳股份
SZ002252,上海莱士
SZ002263,大东南
SZ002270,华明装备
SZ002272,川润股份
SZ002277,友阿股份
SZ002290,禾盛新材
SZ002300,太阳电缆
SZ002304,洋河股份
SZ002306,中科云网
SZ002316,亚联发展
SZ002336,人人乐
SZ002339,积成电子
SZ002344,海宁皮城
SZ002350,北京科锐
SZ002358,森源电气
SZ002364,中恒电气
SZ002371,北方华创
SZ002403,爱仕达
SZ002415,海康威视
SZ002416,爱施德
SZ002418,康盛股份
SZ002419,天虹股份
SZ002420,毅昌科技
SZ002422,科伦药业
SZ002429,兆驰股份
SZ002452,长高电新
SZ002459,晶澳科技
SZ002460,赣锋锂业
SZ002466,天齐锂业
SZ002475,立讯精密
SZ002498,汉缆股份
SZ002508,老板电器
SZ002519,银河电子
SZ002524,光正眼科
SZ002533,金杯电工
SZ002543,万和电气
SZ002545,东方铁塔
SZ002560,通达股份
SZ002561,徐家汇
SZ002576,通达动力
SZ002594,比亚迪
SZ002606,大连电瓷
SZ002607,中公教育
SZ002614,奥佳华
SZ002621,美吉姆
SZ002622,皓宸医疗
SZ002659,凯文教育
SZ002661,克明食品
SZ002668,奥马电器
SZ002676,顺威股份
SZ002677,浙江美大
SZ002695,煌上煌
SZ002697,红旗连锁
SZ002702,海欣食品
SZ002705,新宝股份
SZ002707,众信旅游
SZ002709,天赐材料
SZ002714,牧原股份
SZ002719,麦趣尔
SZ002723,小崧股份
SZ002726,龙大美食
SZ002732,燕塘乳业
SZ002759,天际股份
SZ002812,恩捷股份
SZ002818,富森美
SZ002820,桂发祥
SZ002821,凯莱英
SZ002840,华统股份
SZ002847,盐津铺子
SZ002848,高斯贝尔
SZ002852,道道全
SZ002860,星帅尔
SZ002910,庄园牧场
SZ002946,新乳业
SZ002956,西麦食品
SZ002959,小熊电器
SZ002991,甘源食品
SZ003000,劲仔食品
SZ003008,开普检测
SZ003023,彩虹集团
SZ003030,祖名股份
SZ003032,传智教育
SZ300003,乐普医疗
SZ300014,亿纬锂能
SZ300015,爱尔眼科
SZ300018,中元股份
SZ300019,硅宝科技
SZ300059,东方财富
SZ300069,金利华电
SZ300086,康芝药业
SZ300094,国联水产
SZ300099,尤洛卡
SZ300106,西部牧业
SZ300110,华仁药业
SZ300111,向日葵
SZ300120,经纬辉开
SZ300122,智飞生物
SZ300124,汇川技术
SZ300136,信维通信
SZ300140,节能环境
SZ300142,沃森生物
SZ300143,盈康生命
SZ300144,宋城演艺
SZ300146,汤臣倍健
SZ300149,睿智医药
SZ300158,振东制药
SZ300160,秀强股份
SZ300175,朗源股份
SZ300192,科德教育
SZ300194,福安药业
SZ300199,翰宇药业
SZ300215,电科院
SZ300217,东方电热
SZ300222,科大智能
SZ300231,银信科技
SZ300233,金城医药
SZ300244,迪安诊断
SZ300245,天玑科技
SZ300247,融捷健康
SZ300248,新开普
SZ300250,初灵信息
SZ300254,仟源医药
SZ300255,常山药业
SZ300264,佳创视讯
SZ300265,通光线缆
SZ300267,尔康制药
SZ300269,联建光电
SZ300271,华宇软件
SZ300272,开能健康
SZ300274,阳光电源
SZ300277,海联讯
SZ300287,飞利信
SZ300288,朗玛信息
SZ300290,荣科科技
SZ300295,三六五网
SZ300300,海峡创新
SZ300308,中际旭创
SZ300316,晶盛机电
SZ300324,旋极信息
SZ300338,开元教育
SZ300339,润和软件
SZ300341,麦克奥迪
SZ300342,天银机电
SZ300347,泰格医药
SZ300359,全通教育
SZ300363,博腾股份
SZ300365,恒华科技
SZ300376,易事特
SZ300381,溢多利
SZ300383,光环新网
SZ300394,天孚通信
SZ300399,天利科技
SZ300401,花园生物
SZ300403,汉宇集团
SZ300404,博济医药
SZ300418,昆仑万维
SZ300419,浩丰科技
SZ300434,金石亚药
SZ300436,广生堂
SZ300440,运达科技
SZ300442,润泽科技
SZ300448,浩云科技
SZ300452,山河药辅
SZ300496,中科创达
SZ300497,富祥药业
SZ300498,温氏股份
SZ300499,高澜股份
SZ300502,新易盛
SZ300508,维宏股份
SZ300510,金冠股份
SZ300518,新迅达
SZ300523,辰安科技
SZ300532,今天国际
SZ300541,先进数通
SZ300558,贝达药业
SZ300573,兴齐眼药
SZ300583,赛托生物
SZ300584,海辰药业
SZ300592,华凯易佰
SZ300609,汇纳科技
SZ300617,安靠智电
SZ300622,博士眼镜
SZ300625,三雄极光
SZ300630,普利制药
SZ300634,彩讯股份
SZ300636,同和药业
SZ300645,正元智慧
SZ300670,大烨智能
SZ300674,宇信科技
SZ300678,中科信息
SZ300682,朗新集团
SZ300687,赛意信息
SZ300688,创业黑马
SZ300693,盛弘股份
SZ300702,天宇股份
SZ300705,九典制药
SZ300712,永福股份
SZ300713,英可瑞
SZ300723,一品红
SZ300725,药石科技
SZ300738,奥飞数据
SZ300741,华宝股份
SZ300750,宁德时代
SZ300756,金马游乐
SZ300759,康龙化成
SZ300760,迈瑞医疗
SZ300765,新诺威
SZ300766,每日互动
SZ300782,卓胜微
SZ300783,三只松鼠
SZ300785,值得买
SZ300791,仙乐健康
SZ300807,天迈科技
SZ300811,铂科新材
SZ300820,英杰电气
SZ300824,北鼎股份
SZ300825,阿尔特
SZ300828,锐新科技
SZ300829,金丹科技
SZ300830,金现代
SZ300831,派瑞股份
SZ300832,新产业
SZ300836,佰奥智能
SZ300843,胜蓝股份
SZ300846,首都在线
SZ300858,科拓生物
SZ300870,欧陆通
SZ300872,天阳科技
SZ300880,迦南智能
SZ300882,万胜智能
SZ300885,海昌新材
SZ300892,品渥食品
SZ300894,火星人
SZ300895,铜牛信息
SZ300896,爱美客
SZ300898,熊猫乳品
SZ300903,科翔股份
SZ300908,仲景食品
SZ300911,亿田智能
SZ300915,海融科技
SZ300916,朗特智能
SZ300933,中辰股份
SZ300936,中英科技
SZ300939,秋田微
SZ300941,创识科技
SZ300942,易瑞生物
SZ300960,通业科技
SZ300964,本川智能
SZ300966,共同药业
SZ300973,立高食品
SZ300991,创益通
SZ300997,欢乐家
SZ300999,金龙鱼
SZ301001,凯淳股份
SZ301008,宏昌科技
SZ301013,利和兴
SZ301023,江南奕帆
SZ301031,中熔电气
SZ301033,迈普医学
SZ301041,金百泽
SZ301061,匠心家居
SZ301073,君亭酒店
SZ301075,多瑞医药
SZ301078,孩子王
SZ301080,百普赛斯
SZ301083,百胜智能
SZ301085,亚康股份
SZ301089,拓新药业
SZ301096,百诚医药
SZ301103,何氏眼科
SZ301110,青木股份
SZ301111,粤万年青
SZ301116,益客食品
SZ301126,达嘉维康
SZ301130,西点药业
SZ301171,易点天下
SZ301179,泽宇智能
SZ301182,凯旺科技
SZ301185,鸥玛软件
SZ301187,欧圣电气
SZ301195,北路智控
SZ301197,工大科雅
SZ301201,诚达药业
SZ301206,三元生物
SZ301208,中亦科技
SZ301211,亨迪药业
SZ301213,观想科技
SZ301218,华是科技
SZ301221,光庭信息
SZ301235,华康医疗
SZ301236,软通动力
SZ301239,普瑞眼科
SZ301246,宏源药业
SZ301248,杰创智能
SZ301258,富士莱
SZ301267,华厦眼科
SZ301269,华大九天
SZ301270,汉仪股份
SZ301277,新天地
SZ301281,科源制药
SZ301293,三博脑科
SZ301299,卓创资讯
SZ301302,华如科技
SZ301307,美利信
SZ301310,鑫宏业
SZ301313,凡拓数创
SZ301315,威士顿
SZ301316,慧博云通
SZ301329,信音电子
SZ301330,熵基科技
SZ301332,德尔玛
SZ301333,诺思格
SZ301337,亚华电子
SZ301339,通行宝
SZ301362,民爆光电
SZ301378,通达海
SZ301380,挖金客
SZ301381,赛维时代
SZ301382,蜂助手
SZ301390,经纬股份
SZ301396,宏景科技
SZ301419,阿莱德
SZ301428,世纪恒通
SZ301439,泓淋电力
SZ301489,思泉新材
SZ301498,乖宝宠物
SZ301507,民生健康
SZ301516,中远通
SZ301517,陕西华达
SZ301520,万邦医药
SZ301526,国际复材
SZ301529,福赛科技
